[Timepix3_0]
number_of_pixels = 256,256
orientation = 9.94299deg,187.403deg,-1.36501deg
orientation_mode = "xyz"
pixel_pitch = 55um,55um
position = 939.743um,285.05um,0
spatial_resolution = 4um,4um
time_resolution = 20ns
type = "Timepix3"

[Timepix3_1]
number_of_pixels = 256,256
orientation = 10.3292deg,187.515deg,-1.08977deg
orientation_mode = "xyz"
pixel_pitch = 55um,55um
position = -240.315um,405.685um,21.5mm
spatial_resolution = 4um,4um
time_resolution = 20ns
type = "Timepix3"

[Timepix3_2]
number_of_pixels = 256,256
orientation = 9.72705deg,187.911deg,-1.65648deg
orientation_mode = "xyz"
pixel_pitch = 55um,55um
position = 49.013um,386.567um,43.5mm
spatial_resolution = 4um,4um
time_resolution = 20ns
type = "Timepix3"

[Timepix3_3]
number_of_pixels = 256,256
orientation = 8.99876deg,8.99412deg,-0.0178763deg
orientation_mode = "xyz"
pixel_pitch = 55um,55um
position = -10.202um,-11.943um,186.5mm
spatial_resolution = 4um,4um
time_resolution = 20ns
role = "reference"
type = "Timepix3"

[Timepix3_4]
number_of_pixels = 256,256
orientation = 7.60819deg,9.72865deg,1.17027deg
orientation_mode = "xyz"
pixel_pitch = 55um,55um
position = 455.423um,-578.822um,231.5mm
spatial_resolution = 4um,4um
time_resolution = 20ns
type = "Timepix3"

[Timepix3_5]
number_of_pixels = 256,256
orientation = 6.66436deg,10.288deg,-0.387377deg
orientation_mode = "xyz"
pixel_pitch = 55um,55um
position = -938.126um,28.775um,336.5mm
spatial_resolution = 4um,4um
time_resolution = 20ns
type = "Timepix3"
